module github.com/xingcxb/goKit

go 1.20

require (
	github.com/PuerkitoBio/goquery v1.8.1
	github.com/dkorunic/iSMC v0.7.0
	github.com/hashicorp/golang-lru v1.0.2
	github.com/redis/go-redis/v9 v9.1.0
	github.com/shirou/gopsutil/v3 v3.23.7
	github.com/tidwall/gjson v1.16.0
	github.com/xuri/excelize/v2 v2.7.1
	gopkg.in/yaml.v3 v3.0.1
)

require (
	github.com/andybalholm/cascadia v1.3.2 // indirect
	github.com/cespare/xxhash/v2 v2.2.0 // indirect
	github.com/dgryski/go-rendezvous v0.0.0-20200823014737-9f7001d12a5f // indirect
	github.com/go-ole/go-ole v1.3.0 // indirect
	github.com/lufia/plan9stats v0.0.0-20230326075908-cb1d2100619a // indirect
	github.com/mohae/deepcopy v0.0.0-20170929034955-c48cc78d4826 // indirect
	github.com/panotza/gosmc v1.0.0 // indirect
	github.com/power-devops/perfstat v0.0.0-20221212215047-62379fc7944b // indirect
	github.com/richardlehane/mscfb v1.0.4 // indirect
	github.com/richardlehane/msoleps v1.0.3 // indirect
	github.com/shoenig/go-m1cpu v0.1.6 // indirect
	github.com/tidwall/match v1.1.1 // indirect
	github.com/tidwall/pretty v1.2.1 // indirect
	github.com/tklauser/go-sysconf v0.3.12 // indirect
	github.com/tklauser/numcpus v0.6.1 // indirect
	github.com/xuri/efp v0.0.0-20230802181842-ad255f2331ca // indirect
	github.com/xuri/nfp v0.0.0-20230819163627-dc951e3ffe1a // indirect
	github.com/yusufpapurcu/wmi v1.2.3 // indirect
	golang.org/x/crypto v0.12.0 // indirect
	golang.org/x/net v0.14.0 // indirect
	golang.org/x/sys v0.11.0 // indirect
	golang.org/x/text v0.12.0 // indirect
)
